{
  "type": "mongodb",
  "host": "localhost",
  "database": "node_microservice",
  "entities": ["src/entity/*.js"],
  "logging": false,
  "synchronize": true,
  "cli": {
    "entitiesDir": "src/entity"
  }
}
